<?xml version="1.0" encoding="UTF-8" standalone="no"?>
<svg
   xmlns:dc="http://purl.org/dc/elements/1.1/"
   xmlns:cc="http://creativecommons.org/ns#"
   xmlns:rdf="http://www.w3.org/1999/02/22-rdf-syntax-ns#"
   xmlns:svg="http://www.w3.org/2000/svg"
   xmlns="http://www.w3.org/2000/svg"
   xmlns:sodipodi="http://sodipodi.sourceforge.net/DTD/sodipodi-0.dtd"
   xmlns:inkscape="http://www.inkscape.org/namespaces/inkscape"
   width="518.16803"
   height="520"
   id="svg2"
   sodipodi:version="0.32"
   inkscape:version="0.91 r13725"
   sodipodi:docname="gauche.svg"
   inkscape:output_extension="org.inkscape.output.svg.inkscape"
   version="1.1">
  <metadata
     id="metadata53">
    <rdf:RDF>
      <cc:Work
         rdf:about="">
        <dc:format>image/svg+xml</dc:format>
        <dc:type
           rdf:resource="http://purl.org/dc/dcmitype/StillImage" />
        <dc:title></dc:title>
      </cc:Work>
    </rdf:RDF>
  </metadata>
  <sodipodi:namedview
     inkscape:window-height="1378"
     inkscape:window-width="2560"
     inkscape:pageshadow="2"
     inkscape:pageopacity="0.0"
     guidetolerance="10.0"
     gridtolerance="10.0"
     objecttolerance="10.0"
     borderopacity="1.0"
     bordercolor="#666666"
     pagecolor="#ffffff"
     id="base"
     showgrid="false"
     inkscape:zoom="0.82200809"
     inkscape:cx="37.06673"
     inkscape:cy="303.52499"
     inkscape:window-x="-8"
     inkscape:window-y="-8"
     inkscape:current-layer="svg2"
     inkscape:window-maximized="1" />
  <defs
     id="defs4">
    <inkscape:perspective
       sodipodi:type="inkscape:persp3d"
       inkscape:vp_x="0 : 356.02499 : 1"
       inkscape:vp_y="0 : 1000 : 0"
       inkscape:vp_z="518.16803 : 356.02499 : 1"
       inkscape:persp3d-origin="259.08401 : 237.35 : 1"
       id="perspective55" />
    <marker
       id="ArrowEnd"
       viewBox="0 0 10 10"
       refX="0"
       refY="5"
       markerUnits="strokeWidth"
       markerWidth="4"
       markerHeight="3"
       orient="auto">
      <path
         d="M 0,0 10,5 0,10 Z"
         id="path7"
         inkscape:connector-curvature="0" />
    </marker>
    <marker
       id="ArrowStart"
       viewBox="0 0 10 10"
       refX="10"
       refY="5"
       markerUnits="strokeWidth"
       markerWidth="4"
       markerHeight="3"
       orient="auto">
      <path
         d="M 10,0 0,5 10,10 Z"
         id="path10"
         inkscape:connector-curvature="0" />
    </marker>
    <clipPath
       id="clipPath3391"
       clipPathUnits="userSpaceOnUse">
      <path
         inkscape:connector-curvature="0"
         id="path3393"
         d="m 0,425.2 425.2,0 L 425.2,0 0,0 0,425.2 Z" />
    </clipPath>
    <linearGradient
       id="linearGradient3411"
       spreadMethod="pad"
       gradientTransform="matrix(0,38.460114,38.460114,0,188.02295,246.29639)"
       gradientUnits="userSpaceOnUse"
       y2="0"
       x2="1"
       y1="0"
       x1="0">
      <stop
         id="stop3413"
         offset="0"
         style="stop-opacity:1;stop-color:#9e9fa1" />
      <stop
         id="stop3415"
         offset="0.05500044"
         style="stop-opacity:1;stop-color:#9e9fa1" />
      <stop
         id="stop3417"
         offset="0.21283"
         style="stop-opacity:1;stop-color:#6e6f71" />
      <stop
         id="stop3419"
         offset="0.58609802"
         style="stop-opacity:1;stop-color:#2d2c2e" />
      <stop
         id="stop3421"
         offset="1"
         style="stop-opacity:1;stop-color:#2d2c2e" />
    </linearGradient>
    <clipPath
       id="clipPath3429"
       clipPathUnits="userSpaceOnUse">
      <path
         inkscape:connector-curvature="0"
         id="path3431"
         d="m 0,425.2 425.2,0 L 425.2,0 0,0 0,425.2 Z" />
    </clipPath>
    <clipPath
       id="clipPath3437"
       clipPathUnits="userSpaceOnUse">
      <path
         inkscape:connector-curvature="0"
         id="path3439"
         d="m 200.916,293.49 54.07,0 0,-52.853 -54.07,0 0,52.853 z" />
    </clipPath>
    <clipPath
       id="clipPath3441"
       clipPathUnits="userSpaceOnUse">
      <path
         inkscape:connector-curvature="0"
         id="path3443"
         d="m 199.916,294.77 56.887,0 0,-55.133 -56.887,0 0,55.133 z" />
    </clipPath>
    <linearGradient
       id="linearGradient3449"
       spreadMethod="pad"
       gradientTransform="matrix(8.9751892,20.173004,20.173004,-8.9751892,230.55566,268.78516)"
       gradientUnits="userSpaceOnUse"
       y2="0"
       x2="1"
       y1="0"
       x1="0">
      <stop
         id="stop3451"
         offset="0"
         style="stop-opacity:1;stop-color:#ffffff" />
      <stop
         id="stop3453"
         offset="1"
         style="stop-opacity:1;stop-color:#2d2c2e" />
    </linearGradient>
    <mask
       id="mask3455"
       height="1"
       width="1"
       y="0"
       x="0"
       maskUnits="userSpaceOnUse">
      <g
         id="g3457">
        <g
           id="g3459"
           clip-path="url(#clipPath3437)">
          <path
             inkscape:connector-curvature="0"
             id="path3461"
             style="fill:#000000;fill-opacity:1;fill-rule:nonzero;stroke:none"
             d="m 199.916,294.77 56.887,0 0,-55.133 -56.887,0 0,55.133 z" />
          <g
             id="g3463">
            <g
               id="g3465" />
            <g
               id="g3467">
              <g
                 id="g3469"
                 clip-path="url(#clipPath3441)">
                <g
                   id="g3471">
                  <g
                     id="g3473">
                    <g
                       id="g3475">
                      <g
                         id="g3477">
                        <path
                           inkscape:connector-curvature="0"
                           id="path3479"
                           style="fill:url(#linearGradient3449);stroke:none"
                           d="m 254.453,279.198 c -5.168,19.261 -31.139,13.929 -37.83,11.986 -0.502,-2.332 -1.41,-6.314 -2.778,-11.521 8.352,-5.92 20.903,-19.248 -10.142,-32.196 -0.84,-2.279 -1.721,-4.601 -2.651,-6.965 24.35,0.081 59.341,16.561 53.401,38.696" />
                      </g>
                    </g>
                  </g>
                </g>
              </g>
            </g>
          </g>
        </g>
      </g>
    </mask>
    <clipPath
       id="clipPath3485"
       clipPathUnits="userSpaceOnUse">
      <path
         inkscape:connector-curvature="0"
         id="path3487"
         d="m 200.916,293.49 54.07,0 0,-52.853 -54.07,0 0,52.853 z" />
    </clipPath>
    <clipPath
       id="clipPath3489"
       clipPathUnits="userSpaceOnUse">
      <path
         inkscape:connector-curvature="0"
         id="path3491"
         d="m 200.916,240.637 c 5.542,0.018 11.636,0.887 17.674,2.477 6.943,1.83 13.812,4.617 19.68,8.166 1.918,1.16 3.726,2.402 5.398,3.717 0.488,0.384 0.965,0.775 1.428,1.173 2.787,2.385 5.115,4.997 6.812,7.793 2.822,4.659 3.895,9.838 2.41,15.37 -0.15,0.564 -0.32,1.107 -0.505,1.628 -1.004,2.821 -2.497,5.047 -4.323,6.789 -1.396,1.334 -2.988,2.385 -4.703,3.202 -5.248,2.504 -11.656,2.818 -17.187,2.363 -4.811,-0.395 -8.959,-1.371 -11.114,-1.996 -0.502,-2.332 -1.41,-6.315 -2.778,-11.522 0.302,-0.213 0.608,-0.435 0.917,-0.668 5.836,-4.375 12.811,-12.035 5.971,-20.543 -2.873,-3.57 -8.18,-7.293 -17.03,-10.982 -0.434,-1.18 -0.879,-2.371 -1.336,-3.574 -0.428,-1.121 -0.865,-2.252 -1.314,-3.393" />
    </clipPath>
    <clipPath
       id="clipPath3541"
       clipPathUnits="userSpaceOnUse">
      <path
         inkscape:connector-curvature="0"
         id="path3543"
         d="m 171.331,263.458 c -2.961,-0.096 -5.921,-0.636 -8.48,-2.102 l 0,0 c 1.041,-0.18 2.414,-1.59 3.744,-3.322 l 0,0 c 1.503,-1.952 2.922,-4.018 4.311,-6.063 l 0,0 c 0.795,-1.166 3.246,-5.017 4.436,-6.713 l 0,0 c 1.228,-1.75 2.265,-3.467 3.4,-4.927 l 0,0 c 0.742,-0.952 1.474,-1.858 2.215,-2.744 l 0,0 c 0.451,-0.543 0.908,-1.075 1.367,-1.604 l 0,0 c 1.66,-1.91 3.357,-3.801 5.139,-5.567 l 0,0 c 1.921,-1.896 3.972,-3.612 6.128,-5.138 l 0,0 c 3.076,-2.17 6.356,-3.945 9.756,-5.286 l 0,0 c 4.493,-1.773 9.184,-2.786 13.862,-2.936 l 0,0 c 3.412,-0.112 6.828,0.121 10.178,0.646 l 0,0 c 11.288,1.779 22.138,7.17 34.965,17.353 l 0,0 c -0.008,0.043 -0.012,0.088 -0.018,0.133 l 0,0 c -0.01,0.07 -0.017,0.142 -0.025,0.217 l 0,0 c -0.016,0.113 -0.027,0.224 -0.044,0.334 l 0,0 c -0.015,0.135 -0.033,0.265 -0.052,0.398 l 0,0 c -0.014,0.126 -0.029,0.248 -0.045,0.371 l 0,0 c -0.013,0.104 -0.03,0.209 -0.041,0.317 l 0,0 c -13.541,-9.785 -23.799,-11.01 -31.644,-10.961 l 0,0 c -4.489,0.028 -8.838,2.273 -13.573,7.024 l 0,0 c -1.693,1.706 -3.444,3.732 -5.264,6.093 l 0,0 c -2.242,2.984 -4.225,5.543 -6.056,7.758 l 0,0 c -4.647,5.605 -8.331,8.988 -12.839,11.386 l 0,0 c -1.718,0.915 -3.554,1.686 -5.607,2.384 l 0,0 c -2.465,0.948 -4.75,1.626 -6.86,2.091 l 0,0 c -0.275,0.06 0.206,0.004 -2.443,0.428 l 0,0 c -2.284,0.366 -4.953,0.434 -6.087,0.434 l 0,0 c -0.184,0 -0.328,-10e-4 -0.423,-0.004" />
    </clipPath>
    <clipPath
       id="clipPath3971"
       clipPathUnits="userSpaceOnUse">
      <path
         inkscape:connector-curvature="0"
         id="path3973"
         d="m 0,425.2 425.2,0 L 425.2,0 0,0 0,425.2 Z" />
    </clipPath>
    <clipPath
       id="clipPath3979"
       clipPathUnits="userSpaceOnUse">
      <path
         inkscape:connector-curvature="0"
         id="path3981"
         d="m 162.941,262.547 99.184,0 0,-45.153 -99.184,0 0,45.153 z" />
    </clipPath>
    <clipPath
       id="clipPath3983"
       clipPathUnits="userSpaceOnUse">
      <path
         inkscape:connector-curvature="0"
         id="path3985"
         d="m 162.941,266.709 99.184,0 0,-49.343 -99.184,0 0,49.343 z" />
    </clipPath>
    <clipPath
       id="clipPath3987"
       clipPathUnits="userSpaceOnUse">
      <path
         inkscape:connector-curvature="0"
         id="path3989"
         d="m 162.941,261.444 c 0,0 14.625,5.265 32.875,-7.209 5.027,-3.436 16.699,-17.762 21.518,-21.709 4.816,-3.951 7.582,-7.556 16.609,-6.609 18.686,1.963 28.182,10.908 28.182,10.908 0,0 -20.754,-19.406 -38.691,-19.431 -17.94,-0.028 -33.358,10.774 -43.444,23.196 -10.082,12.424 -13.305,18.885 -17.049,20.854" />
    </clipPath>
    <clipPath
       id="clipPath3991"
       clipPathUnits="userSpaceOnUse">
      <path
         inkscape:connector-curvature="0"
         id="path3993"
         d="m -24361,24786.2 32766,0 0,-32766 -32766,0 0,32766 z" />
    </clipPath>
    <clipPath
       id="clipPath3995"
       clipPathUnits="userSpaceOnUse">
      <path
         inkscape:connector-curvature="0"
         id="path3997"
         d="m -24361,24786.2 32766,0 0,-32766 -32766,0 0,32766 z" />
    </clipPath>
    <mask
       id="mask3999"
       height="1"
       width="1"
       y="0"
       x="0"
       maskUnits="userSpaceOnUse">
      <g
         id="g4001">
        <g
           id="g4003"
           clip-path="url(#clipPath3991)">
          <g
             id="g4005">
            <g
               id="g4007" />
            <g
               id="g4009">
              <g
                 id="g4011"
                 clip-path="url(#clipPath3995)" />
            </g>
          </g>
        </g>
      </g>
    </mask>
    <radialGradient
       id="radialGradient4013"
       spreadMethod="pad"
       gradientTransform="matrix(24.173035,-8.5312805,-9.5377045,-27.018356,176.6709,246.36182)"
       gradientUnits="userSpaceOnUse"
       r="1"
       cy="0"
       cx="0"
       fy="0"
       fx="0">
      <stop
         id="stop4015"
         offset="0"
         style="stop-opacity:1;stop-color:#ffffff" />
      <stop
         id="stop4017"
         offset="1"
         style="stop-opacity:1;stop-color:#2d2c2e" />
    </radialGradient>
    <mask
       id="mask4019"
       height="1"
       width="1"
       y="0"
       x="0"
       maskUnits="userSpaceOnUse">
      <g
         id="g4021">
        <g
           style="opacity:0.60000598"
           id="g4023"
           clip-path="url(#clipPath3979)">
          <g
             id="g4025">
            <g
               id="g4027" />
            <g
               id="g4029">
              <g
                 id="g4031"
                 clip-path="url(#clipPath3983)">
                <g
                   id="g4033">
                  <g
                     id="g4035"
                     clip-path="url(#clipPath3987)">
                    <g
                       id="g4037">
                      <g
                         id="g4039" />
                      <g
                         id="g4041"
                         mask="url(#mask3999)">
                        <g
                           id="g4043">
                          <path
                             inkscape:connector-curvature="0"
                             id="path4045"
                             style="fill:url(#radialGradient4013);stroke:none"
                             d="m 162.941,261.444 c 0,0 14.625,5.265 32.875,-7.209 5.027,-3.436 16.699,-17.762 21.518,-21.709 4.816,-3.951 7.582,-7.556 16.609,-6.609 18.686,1.963 28.182,10.908 28.182,10.908 0,0 -20.754,-19.406 -38.691,-19.431 -17.94,-0.028 -33.358,10.774 -43.444,23.196 -10.082,12.424 -13.305,18.885 -17.049,20.854" />
                        </g>
                      </g>
                    </g>
                  </g>
                </g>
              </g>
            </g>
          </g>
        </g>
      </g>
    </mask>
    <clipPath
       id="clipPath4051"
       clipPathUnits="userSpaceOnUse">
      <path
         inkscape:connector-curvature="0"
         id="path4053"
         d="m 162.941,263.263 99.184,0 0,-43.594 -99.184,0 0,43.594 z" />
    </clipPath>
    <radialGradient
       id="radialGradient4075"
       spreadMethod="pad"
       gradientTransform="matrix(17.475906,-0.6102753,-0.6102753,-17.475906,213.04492,264.35498)"
       gradientUnits="userSpaceOnUse"
       r="1"
       cy="0"
       cx="0"
       fy="0"
       fx="0">
      <stop
         id="stop4077"
         offset="0"
         style="stop-opacity:1;stop-color:#f19532" />
      <stop
         id="stop4079"
         offset="0.23740502"
         style="stop-opacity:1;stop-color:#f19532" />
      <stop
         id="stop4081"
         offset="0.748459"
         style="stop-opacity:1;stop-color:#ce2437" />
      <stop
         id="stop4083"
         offset="1"
         style="stop-opacity:1;stop-color:#ce2437" />
    </radialGradient>
    <clipPath
       id="clipPath4091"
       clipPathUnits="userSpaceOnUse">
      <path
         inkscape:connector-curvature="0"
         id="path4093"
         d="m 0,425.2 425.2,0 L 425.2,0 0,0 0,425.2 Z" />
    </clipPath>
  </defs>
  <path
     inkscape:connector-curvature="0"
     id="path38"
     d="m 251.44829,489.91468 c 0,0 -52.76311,-30.45965 -52.76311,-30.45965 0,0 0,-59.95341 0,-59.95341 1.88378,-0.75832 3.71267,-1.62302 5.49523,-2.66784 28.97218,-16.84083 32.01402,-65.72486 6.75623,-109.21145 -25.25267,-43.46771 -69.22308,-65.07463 -98.20727,-48.24581 -28.992779,16.82709 -32.022614,65.73686 -6.76309,109.21831 3.71953,6.39251 7.84052,12.29779 12.25146,17.68492 0,0 0,46.73262 0,46.73262 0,0 -61.389414,-35.4402 -61.389414,-35.4402 0,0 0,-224.89091 0,-224.89091 0,0 -22.483588,-12.9806 -22.483588,-12.9806 -19.206713,35.9017 -30.265797,76.80967 -30.265797,120.36317 0,138.41868 110.010939,251.09575 247.369349,255.53243 0,0 0,-25.68158 0,-25.68158 z"
     style="fill:#2d2c2e;fill-opacity:1;fill-rule:evenodd;stroke:none" />
</svg>
