<?xml version="1.0" encoding="UTF-8" standalone="no"?>
<!-- Created with Inkscape (http://www.inkscape.org/) -->

<svg
   xmlns:dc="http://purl.org/dc/elements/1.1/"
   xmlns:cc="http://creativecommons.org/ns#"
   xmlns:rdf="http://www.w3.org/1999/02/22-rdf-syntax-ns#"
   xmlns:svg="http://www.w3.org/2000/svg"
   xmlns="http://www.w3.org/2000/svg"
   xmlns:sodipodi="http://sodipodi.sourceforge.net/DTD/sodipodi-0.dtd"
   xmlns:inkscape="http://www.inkscape.org/namespaces/inkscape"
   width="210mm"
   height="297mm"
   id="svg2"
   version="1.1"
   inkscape:version="0.91 r13725"
   sodipodi:docname="idée.svg">
  <defs
     id="defs4">
    <clipPath
       clipPathUnits="userSpaceOnUse"
       id="clipPath4091">
      <path
         d="m 0,425.2 425.2,0 L 425.2,0 0,0 0,425.2 Z"
         id="path4093"
         inkscape:connector-curvature="0" />
    </clipPath>
    <radialGradient
       fx="0"
       fy="0"
       cx="0"
       cy="0"
       r="1"
       gradientUnits="userSpaceOnUse"
       gradientTransform="matrix(17.475906,-0.6102753,-0.6102753,-17.475906,213.04492,264.35498)"
       spreadMethod="pad"
       id="radialGradient4075">
      <stop
         style="stop-opacity:1;stop-color:#f19532"
         offset="0"
         id="stop4077" />
      <stop
         style="stop-opacity:1;stop-color:#f19532"
         offset="0.23740502"
         id="stop4079" />
      <stop
         style="stop-opacity:1;stop-color:#ce2437"
         offset="0.748459"
         id="stop4081" />
      <stop
         style="stop-opacity:1;stop-color:#ce2437"
         offset="1"
         id="stop4083" />
    </radialGradient>
    <clipPath
       clipPathUnits="userSpaceOnUse"
       id="clipPath4051">
      <path
         d="m 162.941,263.263 99.184,0 0,-43.594 -99.184,0 0,43.594 z"
         id="path4053"
         inkscape:connector-curvature="0" />
    </clipPath>
    <mask
       maskUnits="userSpaceOnUse"
       x="0"
       y="0"
       width="1"
       height="1"
       id="mask4019">
      <g
         id="g4021">
        <g
           clip-path="url(#clipPath3979)"
           id="g4023"
           style="opacity:0.60000598">
          <g
             id="g4025">
            <g
               id="g4027" />
            <g
               id="g4029">
              <g
                 clip-path="url(#clipPath3983)"
                 id="g4031">
                <g
                   id="g4033">
                  <g
                     clip-path="url(#clipPath3987)"
                     id="g4035">
                    <g
                       id="g4037">
                      <g
                         id="g4039" />
                      <g
                         mask="url(#mask3999)"
                         id="g4041">
                        <g
                           id="g4043">
                          <path
                             d="m 162.941,261.444 c 0,0 14.625,5.265 32.875,-7.209 5.027,-3.436 16.699,-17.762 21.518,-21.709 4.816,-3.951 7.582,-7.556 16.609,-6.609 18.686,1.963 28.182,10.908 28.182,10.908 0,0 -20.754,-19.406 -38.691,-19.431 -17.94,-0.028 -33.358,10.774 -43.444,23.196 -10.082,12.424 -13.305,18.885 -17.049,20.854"
                             style="fill:url(#radialGradient4013);stroke:none"
                             id="path4045"
                             inkscape:connector-curvature="0" />
                        </g>
                      </g>
                    </g>
                  </g>
                </g>
              </g>
            </g>
          </g>
        </g>
      </g>
    </mask>
    <radialGradient
       fx="0"
       fy="0"
       cx="0"
       cy="0"
       r="1"
       gradientUnits="userSpaceOnUse"
       gradientTransform="matrix(24.173035,-8.5312805,-9.5377045,-27.018356,176.6709,246.36182)"
       spreadMethod="pad"
       id="radialGradient4013">
      <stop
         style="stop-opacity:1;stop-color:#ffffff"
         offset="0"
         id="stop4015" />
      <stop
         style="stop-opacity:1;stop-color:#2d2c2e"
         offset="1"
         id="stop4017" />
    </radialGradient>
    <mask
       maskUnits="userSpaceOnUse"
       x="0"
       y="0"
       width="1"
       height="1"
       id="mask3999">
      <g
         id="g4001">
        <g
           clip-path="url(#clipPath3991)"
           id="g4003">
          <g
             id="g4005">
            <g
               id="g4007" />
            <g
               id="g4009">
              <g
                 clip-path="url(#clipPath3995)"
                 id="g4011" />
            </g>
          </g>
        </g>
      </g>
    </mask>
    <clipPath
       clipPathUnits="userSpaceOnUse"
       id="clipPath3995">
      <path
         d="m -24361,24786.2 32766,0 0,-32766 -32766,0 0,32766 z"
         id="path3997"
         inkscape:connector-curvature="0" />
    </clipPath>
    <clipPath
       clipPathUnits="userSpaceOnUse"
       id="clipPath3991">
      <path
         d="m -24361,24786.2 32766,0 0,-32766 -32766,0 0,32766 z"
         id="path3993"
         inkscape:connector-curvature="0" />
    </clipPath>
    <clipPath
       clipPathUnits="userSpaceOnUse"
       id="clipPath3987">
      <path
         d="m 162.941,261.444 c 0,0 14.625,5.265 32.875,-7.209 5.027,-3.436 16.699,-17.762 21.518,-21.709 4.816,-3.951 7.582,-7.556 16.609,-6.609 18.686,1.963 28.182,10.908 28.182,10.908 0,0 -20.754,-19.406 -38.691,-19.431 -17.94,-0.028 -33.358,10.774 -43.444,23.196 -10.082,12.424 -13.305,18.885 -17.049,20.854"
         id="path3989"
         inkscape:connector-curvature="0" />
    </clipPath>
    <clipPath
       clipPathUnits="userSpaceOnUse"
       id="clipPath3983">
      <path
         d="m 162.941,266.709 99.184,0 0,-49.343 -99.184,0 0,49.343 z"
         id="path3985"
         inkscape:connector-curvature="0" />
    </clipPath>
    <clipPath
       clipPathUnits="userSpaceOnUse"
       id="clipPath3979">
      <path
         d="m 162.941,262.547 99.184,0 0,-45.153 -99.184,0 0,45.153 z"
         id="path3981"
         inkscape:connector-curvature="0" />
    </clipPath>
    <clipPath
       clipPathUnits="userSpaceOnUse"
       id="clipPath3971">
      <path
         d="m 0,425.2 425.2,0 L 425.2,0 0,0 0,425.2 Z"
         id="path3973"
         inkscape:connector-curvature="0" />
    </clipPath>
    <clipPath
       clipPathUnits="userSpaceOnUse"
       id="clipPath3541">
      <path
         d="m 171.331,263.458 c -2.961,-0.096 -5.921,-0.636 -8.48,-2.102 l 0,0 c 1.041,-0.18 2.414,-1.59 3.744,-3.322 l 0,0 c 1.503,-1.952 2.922,-4.018 4.311,-6.063 l 0,0 c 0.795,-1.166 3.246,-5.017 4.436,-6.713 l 0,0 c 1.228,-1.75 2.265,-3.467 3.4,-4.927 l 0,0 c 0.742,-0.952 1.474,-1.858 2.215,-2.744 l 0,0 c 0.451,-0.543 0.908,-1.075 1.367,-1.604 l 0,0 c 1.66,-1.91 3.357,-3.801 5.139,-5.567 l 0,0 c 1.921,-1.896 3.972,-3.612 6.128,-5.138 l 0,0 c 3.076,-2.17 6.356,-3.945 9.756,-5.286 l 0,0 c 4.493,-1.773 9.184,-2.786 13.862,-2.936 l 0,0 c 3.412,-0.112 6.828,0.121 10.178,0.646 l 0,0 c 11.288,1.779 22.138,7.17 34.965,17.353 l 0,0 c -0.008,0.043 -0.012,0.088 -0.018,0.133 l 0,0 c -0.01,0.07 -0.017,0.142 -0.025,0.217 l 0,0 c -0.016,0.113 -0.027,0.224 -0.044,0.334 l 0,0 c -0.015,0.135 -0.033,0.265 -0.052,0.398 l 0,0 c -0.014,0.126 -0.029,0.248 -0.045,0.371 l 0,0 c -0.013,0.104 -0.03,0.209 -0.041,0.317 l 0,0 c -13.541,-9.785 -23.799,-11.01 -31.644,-10.961 l 0,0 c -4.489,0.028 -8.838,2.273 -13.573,7.024 l 0,0 c -1.693,1.706 -3.444,3.732 -5.264,6.093 l 0,0 c -2.242,2.984 -4.225,5.543 -6.056,7.758 l 0,0 c -4.647,5.605 -8.331,8.988 -12.839,11.386 l 0,0 c -1.718,0.915 -3.554,1.686 -5.607,2.384 l 0,0 c -2.465,0.948 -4.75,1.626 -6.86,2.091 l 0,0 c -0.275,0.06 0.206,0.004 -2.443,0.428 l 0,0 c -2.284,0.366 -4.953,0.434 -6.087,0.434 l 0,0 c -0.184,0 -0.328,-10e-4 -0.423,-0.004"
         id="path3543"
         inkscape:connector-curvature="0" />
    </clipPath>
    <clipPath
       clipPathUnits="userSpaceOnUse"
       id="clipPath3489">
      <path
         d="m 200.916,240.637 c 5.542,0.018 11.636,0.887 17.674,2.477 6.943,1.83 13.812,4.617 19.68,8.166 1.918,1.16 3.726,2.402 5.398,3.717 0.488,0.384 0.965,0.775 1.428,1.173 2.787,2.385 5.115,4.997 6.812,7.793 2.822,4.659 3.895,9.838 2.41,15.37 -0.15,0.564 -0.32,1.107 -0.505,1.628 -1.004,2.821 -2.497,5.047 -4.323,6.789 -1.396,1.334 -2.988,2.385 -4.703,3.202 -5.248,2.504 -11.656,2.818 -17.187,2.363 -4.811,-0.395 -8.959,-1.371 -11.114,-1.996 -0.502,-2.332 -1.41,-6.315 -2.778,-11.522 0.302,-0.213 0.608,-0.435 0.917,-0.668 5.836,-4.375 12.811,-12.035 5.971,-20.543 -2.873,-3.57 -8.18,-7.293 -17.03,-10.982 -0.434,-1.18 -0.879,-2.371 -1.336,-3.574 -0.428,-1.121 -0.865,-2.252 -1.314,-3.393"
         id="path3491"
         inkscape:connector-curvature="0" />
    </clipPath>
    <clipPath
       clipPathUnits="userSpaceOnUse"
       id="clipPath3485">
      <path
         d="m 200.916,293.49 54.07,0 0,-52.853 -54.07,0 0,52.853 z"
         id="path3487"
         inkscape:connector-curvature="0" />
    </clipPath>
    <mask
       maskUnits="userSpaceOnUse"
       x="0"
       y="0"
       width="1"
       height="1"
       id="mask3455">
      <g
         id="g3457">
        <g
           clip-path="url(#clipPath3437)"
           id="g3459">
          <path
             d="m 199.916,294.77 56.887,0 0,-55.133 -56.887,0 0,55.133 z"
             style="fill:#000000;fill-opacity:1;fill-rule:nonzero;stroke:none"
             id="path3461"
             inkscape:connector-curvature="0" />
          <g
             id="g3463">
            <g
               id="g3465" />
            <g
               id="g3467">
              <g
                 clip-path="url(#clipPath3441)"
                 id="g3469">
                <g
                   id="g3471">
                  <g
                     id="g3473">
                    <g
                       id="g3475">
                      <g
                         id="g3477">
                        <path
                           d="m 254.453,279.198 c -5.168,19.261 -31.139,13.929 -37.83,11.986 -0.502,-2.332 -1.41,-6.314 -2.778,-11.521 8.352,-5.92 20.903,-19.248 -10.142,-32.196 -0.84,-2.279 -1.721,-4.601 -2.651,-6.965 24.35,0.081 59.341,16.561 53.401,38.696"
                           style="fill:url(#linearGradient3449);stroke:none"
                           id="path3479"
                           inkscape:connector-curvature="0" />
                      </g>
                    </g>
                  </g>
                </g>
              </g>
            </g>
          </g>
        </g>
      </g>
    </mask>
    <linearGradient
       x1="0"
       y1="0"
       x2="1"
       y2="0"
       gradientUnits="userSpaceOnUse"
       gradientTransform="matrix(8.9751892,20.173004,20.173004,-8.9751892,230.55566,268.78516)"
       spreadMethod="pad"
       id="linearGradient3449">
      <stop
         style="stop-opacity:1;stop-color:#ffffff"
         offset="0"
         id="stop3451" />
      <stop
         style="stop-opacity:1;stop-color:#2d2c2e"
         offset="1"
         id="stop3453" />
    </linearGradient>
    <clipPath
       clipPathUnits="userSpaceOnUse"
       id="clipPath3441">
      <path
         d="m 199.916,294.77 56.887,0 0,-55.133 -56.887,0 0,55.133 z"
         id="path3443"
         inkscape:connector-curvature="0" />
    </clipPath>
    <clipPath
       clipPathUnits="userSpaceOnUse"
       id="clipPath3437">
      <path
         d="m 200.916,293.49 54.07,0 0,-52.853 -54.07,0 0,52.853 z"
         id="path3439"
         inkscape:connector-curvature="0" />
    </clipPath>
    <clipPath
       clipPathUnits="userSpaceOnUse"
       id="clipPath3429">
      <path
         d="m 0,425.2 425.2,0 L 425.2,0 0,0 0,425.2 Z"
         id="path3431"
         inkscape:connector-curvature="0" />
    </clipPath>
    <linearGradient
       x1="0"
       y1="0"
       x2="1"
       y2="0"
       gradientUnits="userSpaceOnUse"
       gradientTransform="matrix(0,38.460114,38.460114,0,188.02295,246.29639)"
       spreadMethod="pad"
       id="linearGradient3411">
      <stop
         style="stop-opacity:1;stop-color:#9e9fa1"
         offset="0"
         id="stop3413" />
      <stop
         style="stop-opacity:1;stop-color:#9e9fa1"
         offset="0.05500044"
         id="stop3415" />
      <stop
         style="stop-opacity:1;stop-color:#6e6f71"
         offset="0.21283"
         id="stop3417" />
      <stop
         style="stop-opacity:1;stop-color:#2d2c2e"
         offset="0.58609802"
         id="stop3419" />
      <stop
         style="stop-opacity:1;stop-color:#2d2c2e"
         offset="1"
         id="stop3421" />
    </linearGradient>
    <clipPath
       clipPathUnits="userSpaceOnUse"
       id="clipPath3391">
      <path
         d="m 0,425.2 425.2,0 L 425.2,0 0,0 0,425.2 Z"
         id="path3393"
         inkscape:connector-curvature="0" />
    </clipPath>
    <marker
       orient="auto"
       markerHeight="3"
       markerWidth="4"
       markerUnits="strokeWidth"
       refY="5"
       refX="10"
       viewBox="0 0 10 10"
       id="ArrowStart">
      <path
         id="path10"
         d="M 10 0 L 0 5 L 10 10 z" />
    </marker>
    <marker
       orient="auto"
       markerHeight="3"
       markerWidth="4"
       markerUnits="strokeWidth"
       refY="5"
       refX="0"
       viewBox="0 0 10 10"
       id="ArrowEnd">
      <path
         id="path7"
         d="M 0 0 L 10 5 L 0 10 z" />
    </marker>
    <inkscape:perspective
       id="perspective55"
       inkscape:persp3d-origin="259.08401 : 237.35 : 1"
       inkscape:vp_z="518.16803 : 356.02499 : 1"
       inkscape:vp_y="0 : 1000 : 0"
       inkscape:vp_x="0 : 356.02499 : 1"
       sodipodi:type="inkscape:persp3d" />
    <clipPath
       clipPathUnits="userSpaceOnUse"
       id="clipPath4091-5">
      <path
         d="m 0,425.2 425.2,0 L 425.2,0 0,0 0,425.2 Z"
         id="path4093-9"
         inkscape:connector-curvature="0" />
    </clipPath>
    <radialGradient
       fx="0"
       fy="0"
       cx="0"
       cy="0"
       r="1"
       gradientUnits="userSpaceOnUse"
       gradientTransform="matrix(17.475906,-0.6102753,-0.6102753,-17.475906,213.04492,264.35498)"
       spreadMethod="pad"
       id="radialGradient4075-7">
      <stop
         style="stop-opacity:1;stop-color:#f19532"
         offset="0"
         id="stop4077-3" />
      <stop
         style="stop-opacity:1;stop-color:#f19532"
         offset="0.23740502"
         id="stop4079-3" />
      <stop
         style="stop-opacity:1;stop-color:#ce2437"
         offset="0.748459"
         id="stop4081-9" />
      <stop
         style="stop-opacity:1;stop-color:#ce2437"
         offset="1"
         id="stop4083-8" />
    </radialGradient>
    <clipPath
       clipPathUnits="userSpaceOnUse"
       id="clipPath4051-5">
      <path
         d="m 162.941,263.263 99.184,0 0,-43.594 -99.184,0 0,43.594 z"
         id="path4053-2"
         inkscape:connector-curvature="0" />
    </clipPath>
    <mask
       maskUnits="userSpaceOnUse"
       x="0"
       y="0"
       width="1"
       height="1"
       id="mask4019-2">
      <g
         id="g4021-3">
        <g
           clip-path="url(#clipPath3979-0)"
           id="g4023-2"
           style="opacity:0.60000598">
          <g
             id="g4025-2">
            <g
               id="g4027-8" />
            <g
               id="g4029-5">
              <g
                 clip-path="url(#clipPath3983-0)"
                 id="g4031-3">
                <g
                   id="g4033-5">
                  <g
                     clip-path="url(#clipPath3987-6)"
                     id="g4035-0">
                    <g
                       id="g4037-8">
                      <g
                         id="g4039-6" />
                      <g
                         mask="url(#mask3999-0)"
                         id="g4041-2">
                        <g
                           id="g4043-4">
                          <path
                             d="m 162.941,261.444 c 0,0 14.625,5.265 32.875,-7.209 5.027,-3.436 16.699,-17.762 21.518,-21.709 4.816,-3.951 7.582,-7.556 16.609,-6.609 18.686,1.963 28.182,10.908 28.182,10.908 0,0 -20.754,-19.406 -38.691,-19.431 -17.94,-0.028 -33.358,10.774 -43.444,23.196 -10.082,12.424 -13.305,18.885 -17.049,20.854"
                             style="fill:url(#radialGradient4013-9);stroke:none"
                             id="path4045-6"
                             inkscape:connector-curvature="0" />
                        </g>
                      </g>
                    </g>
                  </g>
                </g>
              </g>
            </g>
          </g>
        </g>
      </g>
    </mask>
    <radialGradient
       fx="0"
       fy="0"
       cx="0"
       cy="0"
       r="1"
       gradientUnits="userSpaceOnUse"
       gradientTransform="matrix(24.173035,-8.5312805,-9.5377045,-27.018356,176.6709,246.36182)"
       spreadMethod="pad"
       id="radialGradient4013-9">
      <stop
         style="stop-opacity:1;stop-color:#ffffff"
         offset="0"
         id="stop4015-3" />
      <stop
         style="stop-opacity:1;stop-color:#2d2c2e"
         offset="1"
         id="stop4017-8" />
    </radialGradient>
    <mask
       maskUnits="userSpaceOnUse"
       x="0"
       y="0"
       width="1"
       height="1"
       id="mask3999-0">
      <g
         id="g4001-8">
        <g
           clip-path="url(#clipPath3991-8)"
           id="g4003-7">
          <g
             id="g4005-0">
            <g
               id="g4007-2" />
            <g
               id="g4009-2">
              <g
                 clip-path="url(#clipPath3995-0)"
                 id="g4011-3" />
            </g>
          </g>
        </g>
      </g>
    </mask>
    <clipPath
       clipPathUnits="userSpaceOnUse"
       id="clipPath3995-0">
      <path
         d="m -24361,24786.2 32766,0 0,-32766 -32766,0 0,32766 z"
         id="path3997-5"
         inkscape:connector-curvature="0" />
    </clipPath>
    <clipPath
       clipPathUnits="userSpaceOnUse"
       id="clipPath3991-8">
      <path
         d="m -24361,24786.2 32766,0 0,-32766 -32766,0 0,32766 z"
         id="path3993-0"
         inkscape:connector-curvature="0" />
    </clipPath>
    <clipPath
       clipPathUnits="userSpaceOnUse"
       id="clipPath3987-6">
      <path
         d="m 162.941,261.444 c 0,0 14.625,5.265 32.875,-7.209 5.027,-3.436 16.699,-17.762 21.518,-21.709 4.816,-3.951 7.582,-7.556 16.609,-6.609 18.686,1.963 28.182,10.908 28.182,10.908 0,0 -20.754,-19.406 -38.691,-19.431 -17.94,-0.028 -33.358,10.774 -43.444,23.196 -10.082,12.424 -13.305,18.885 -17.049,20.854"
         id="path3989-8"
         inkscape:connector-curvature="0" />
    </clipPath>
    <clipPath
       clipPathUnits="userSpaceOnUse"
       id="clipPath3983-0">
      <path
         d="m 162.941,266.709 99.184,0 0,-49.343 -99.184,0 0,49.343 z"
         id="path3985-2"
         inkscape:connector-curvature="0" />
    </clipPath>
    <clipPath
       clipPathUnits="userSpaceOnUse"
       id="clipPath3979-0">
      <path
         d="m 162.941,262.547 99.184,0 0,-45.153 -99.184,0 0,45.153 z"
         id="path3981-6"
         inkscape:connector-curvature="0" />
    </clipPath>
    <clipPath
       clipPathUnits="userSpaceOnUse"
       id="clipPath3971-2">
      <path
         d="m 0,425.2 425.2,0 L 425.2,0 0,0 0,425.2 Z"
         id="path3973-8"
         inkscape:connector-curvature="0" />
    </clipPath>
    <clipPath
       clipPathUnits="userSpaceOnUse"
       id="clipPath3541-7">
      <path
         d="m 171.331,263.458 c -2.961,-0.096 -5.921,-0.636 -8.48,-2.102 l 0,0 c 1.041,-0.18 2.414,-1.59 3.744,-3.322 l 0,0 c 1.503,-1.952 2.922,-4.018 4.311,-6.063 l 0,0 c 0.795,-1.166 3.246,-5.017 4.436,-6.713 l 0,0 c 1.228,-1.75 2.265,-3.467 3.4,-4.927 l 0,0 c 0.742,-0.952 1.474,-1.858 2.215,-2.744 l 0,0 c 0.451,-0.543 0.908,-1.075 1.367,-1.604 l 0,0 c 1.66,-1.91 3.357,-3.801 5.139,-5.567 l 0,0 c 1.921,-1.896 3.972,-3.612 6.128,-5.138 l 0,0 c 3.076,-2.17 6.356,-3.945 9.756,-5.286 l 0,0 c 4.493,-1.773 9.184,-2.786 13.862,-2.936 l 0,0 c 3.412,-0.112 6.828,0.121 10.178,0.646 l 0,0 c 11.288,1.779 22.138,7.17 34.965,17.353 l 0,0 c -0.008,0.043 -0.012,0.088 -0.018,0.133 l 0,0 c -0.01,0.07 -0.017,0.142 -0.025,0.217 l 0,0 c -0.016,0.113 -0.027,0.224 -0.044,0.334 l 0,0 c -0.015,0.135 -0.033,0.265 -0.052,0.398 l 0,0 c -0.014,0.126 -0.029,0.248 -0.045,0.371 l 0,0 c -0.013,0.104 -0.03,0.209 -0.041,0.317 l 0,0 c -13.541,-9.785 -23.799,-11.01 -31.644,-10.961 l 0,0 c -4.489,0.028 -8.838,2.273 -13.573,7.024 l 0,0 c -1.693,1.706 -3.444,3.732 -5.264,6.093 l 0,0 c -2.242,2.984 -4.225,5.543 -6.056,7.758 l 0,0 c -4.647,5.605 -8.331,8.988 -12.839,11.386 l 0,0 c -1.718,0.915 -3.554,1.686 -5.607,2.384 l 0,0 c -2.465,0.948 -4.75,1.626 -6.86,2.091 l 0,0 c -0.275,0.06 0.206,0.004 -2.443,0.428 l 0,0 c -2.284,0.366 -4.953,0.434 -6.087,0.434 l 0,0 c -0.184,0 -0.328,-10e-4 -0.423,-0.004"
         id="path3543-5"
         inkscape:connector-curvature="0" />
    </clipPath>
    <clipPath
       clipPathUnits="userSpaceOnUse"
       id="clipPath3489-3">
      <path
         d="m 200.916,240.637 c 5.542,0.018 11.636,0.887 17.674,2.477 6.943,1.83 13.812,4.617 19.68,8.166 1.918,1.16 3.726,2.402 5.398,3.717 0.488,0.384 0.965,0.775 1.428,1.173 2.787,2.385 5.115,4.997 6.812,7.793 2.822,4.659 3.895,9.838 2.41,15.37 -0.15,0.564 -0.32,1.107 -0.505,1.628 -1.004,2.821 -2.497,5.047 -4.323,6.789 -1.396,1.334 -2.988,2.385 -4.703,3.202 -5.248,2.504 -11.656,2.818 -17.187,2.363 -4.811,-0.395 -8.959,-1.371 -11.114,-1.996 -0.502,-2.332 -1.41,-6.315 -2.778,-11.522 0.302,-0.213 0.608,-0.435 0.917,-0.668 5.836,-4.375 12.811,-12.035 5.971,-20.543 -2.873,-3.57 -8.18,-7.293 -17.03,-10.982 -0.434,-1.18 -0.879,-2.371 -1.336,-3.574 -0.428,-1.121 -0.865,-2.252 -1.314,-3.393"
         id="path3491-1"
         inkscape:connector-curvature="0" />
    </clipPath>
    <clipPath
       clipPathUnits="userSpaceOnUse"
       id="clipPath3485-8">
      <path
         d="m 200.916,293.49 54.07,0 0,-52.853 -54.07,0 0,52.853 z"
         id="path3487-5"
         inkscape:connector-curvature="0" />
    </clipPath>
    <mask
       maskUnits="userSpaceOnUse"
       x="0"
       y="0"
       width="1"
       height="1"
       id="mask3455-0">
      <g
         id="g3457-8">
        <g
           clip-path="url(#clipPath3437-0)"
           id="g3459-2">
          <path
             d="m 199.916,294.77 56.887,0 0,-55.133 -56.887,0 0,55.133 z"
             style="fill:#000000;fill-opacity:1;fill-rule:nonzero;stroke:none"
             id="path3461-0"
             inkscape:connector-curvature="0" />
          <g
             id="g3463-1">
            <g
               id="g3465-2" />
            <g
               id="g3467-1">
              <g
                 clip-path="url(#clipPath3441-8)"
                 id="g3469-7">
                <g
                   id="g3471-1">
                  <g
                     id="g3473-5">
                    <g
                       id="g3475-2">
                      <g
                         id="g3477-0">
                        <path
                           d="m 254.453,279.198 c -5.168,19.261 -31.139,13.929 -37.83,11.986 -0.502,-2.332 -1.41,-6.314 -2.778,-11.521 8.352,-5.92 20.903,-19.248 -10.142,-32.196 -0.84,-2.279 -1.721,-4.601 -2.651,-6.965 24.35,0.081 59.341,16.561 53.401,38.696"
                           style="fill:url(#linearGradient3449-2);stroke:none"
                           id="path3479-2"
                           inkscape:connector-curvature="0" />
                      </g>
                    </g>
                  </g>
                </g>
              </g>
            </g>
          </g>
        </g>
      </g>
    </mask>
    <linearGradient
       x1="0"
       y1="0"
       x2="1"
       y2="0"
       gradientUnits="userSpaceOnUse"
       gradientTransform="matrix(8.9751892,20.173004,20.173004,-8.9751892,230.55566,268.78516)"
       spreadMethod="pad"
       id="linearGradient3449-2">
      <stop
         style="stop-opacity:1;stop-color:#ffffff"
         offset="0"
         id="stop3451-9" />
      <stop
         style="stop-opacity:1;stop-color:#2d2c2e"
         offset="1"
         id="stop3453-5" />
    </linearGradient>
    <clipPath
       clipPathUnits="userSpaceOnUse"
       id="clipPath3441-8">
      <path
         d="m 199.916,294.77 56.887,0 0,-55.133 -56.887,0 0,55.133 z"
         id="path3443-3"
         inkscape:connector-curvature="0" />
    </clipPath>
    <clipPath
       clipPathUnits="userSpaceOnUse"
       id="clipPath3437-0">
      <path
         d="m 200.916,293.49 54.07,0 0,-52.853 -54.07,0 0,52.853 z"
         id="path3439-9"
         inkscape:connector-curvature="0" />
    </clipPath>
    <clipPath
       clipPathUnits="userSpaceOnUse"
       id="clipPath3429-2">
      <path
         d="m 0,425.2 425.2,0 L 425.2,0 0,0 0,425.2 Z"
         id="path3431-2"
         inkscape:connector-curvature="0" />
    </clipPath>
    <linearGradient
       x1="0"
       y1="0"
       x2="1"
       y2="0"
       gradientUnits="userSpaceOnUse"
       gradientTransform="matrix(0,38.460114,38.460114,0,188.02295,246.29639)"
       spreadMethod="pad"
       id="linearGradient3411-3">
      <stop
         style="stop-opacity:1;stop-color:#9e9fa1"
         offset="0"
         id="stop3413-2" />
      <stop
         style="stop-opacity:1;stop-color:#9e9fa1"
         offset="0.05500044"
         id="stop3415-2" />
      <stop
         style="stop-opacity:1;stop-color:#6e6f71"
         offset="0.21283"
         id="stop3417-9" />
      <stop
         style="stop-opacity:1;stop-color:#2d2c2e"
         offset="0.58609802"
         id="stop3419-1" />
      <stop
         style="stop-opacity:1;stop-color:#2d2c2e"
         offset="1"
         id="stop3421-5" />
    </linearGradient>
    <clipPath
       clipPathUnits="userSpaceOnUse"
       id="clipPath3391-3">
      <path
         d="m 0,425.2 425.2,0 L 425.2,0 0,0 0,425.2 Z"
         id="path3393-9"
         inkscape:connector-curvature="0" />
    </clipPath>
    <marker
       orient="auto"
       markerHeight="3"
       markerWidth="4"
       markerUnits="strokeWidth"
       refY="5"
       refX="10"
       viewBox="0 0 10 10"
       id="ArrowStart-5">
      <path
         id="path10-5"
         d="M 10 0 L 0 5 L 10 10 z" />
    </marker>
    <marker
       orient="auto"
       markerHeight="3"
       markerWidth="4"
       markerUnits="strokeWidth"
       refY="5"
       refX="0"
       viewBox="0 0 10 10"
       id="ArrowEnd-3">
      <path
         id="path7-6"
         d="M 0 0 L 10 5 L 0 10 z" />
    </marker>
    <inkscape:perspective
       id="perspective55-4"
       inkscape:persp3d-origin="259.08401 : 237.35 : 1"
       inkscape:vp_z="518.16803 : 356.02499 : 1"
       inkscape:vp_y="0 : 1000 : 0"
       inkscape:vp_x="0 : 356.02499 : 1"
       sodipodi:type="inkscape:persp3d" />
  </defs>
  <sodipodi:namedview
     id="base"
     pagecolor="#ffffff"
     bordercolor="#666666"
     borderopacity="1.0"
     inkscape:pageopacity="0.0"
     inkscape:pageshadow="2"
     inkscape:zoom="0.5"
     inkscape:cx="332.86916"
     inkscape:cy="675.36723"
     inkscape:document-units="px"
     inkscape:current-layer="layer1"
     showgrid="false"
     inkscape:window-width="1366"
     inkscape:window-height="681"
     inkscape:window-x="0"
     inkscape:window-y="0"
     inkscape:window-maximized="1"
     showguides="true"
     inkscape:guide-bbox="true" />
  <metadata
     id="metadata7">
    <rdf:RDF>
      <cc:Work
         rdf:about="">
        <dc:format>image/svg+xml</dc:format>
        <dc:type
           rdf:resource="http://purl.org/dc/dcmitype/StillImage" />
        <dc:title></dc:title>
      </cc:Work>
    </rdf:RDF>
  </metadata>
  <g
     inkscape:label="Calque 1"
     inkscape:groupmode="layer"
     id="layer1">
    <g
       id="g4076"
       transform="matrix(1.4344994,0,0,1.4344994,-142.28212,-427.93991)">
      <path
         inkscape:connector-curvature="0"
         id="path4006"
         d="m 292.92857,1002.0453 0,-28.8883 -21.25,-0.48116 c -24.38547,-0.55216 -28.28657,-1.31987 -42.75,-8.4129 -8.06513,-3.95524 -10.85935,-6.03114 -18.5,-13.74412 -10.2772,-10.37449 -16.10961,-20.2183 -19.6888,-33.2303 -1.95604,-7.11111 -2.19936,-10.9087 -2.56968,-40.1049 l -0.40904,-32.25 -14.16624,-0.002 c -16.05378,-0.002 -19.46145,-1.00621 -23.39631,-6.89633 -4.4595,-6.67548 -4.0583,-8.09786 17.79885,-63.10212 l 20.06728,-50.5 1.95166,-16.5 c 2.80963,-23.75366 4.69781,-35.80449 6.96806,-44.47207 16.55281,-63.1968 80.9958,-118.28764 152.10809,-130.03373 81.30847,-13.43027 164.43829,30.65374 199.89659,106.0058 8.67189,18.42853 13.47783,34.58526 16.50891,55.5 2.47027,17.04505 1.55256,47.07419 -1.94159,63.53264 -8.48219,39.95358 -27.54596,73.50816 -57.937,101.97622 l -10.66602,9.99114 -0.0124,80.25 -0.0124,80.25003 -101,0 -101,0 0,-28.8883 z m 167.49796,-142.99875 1.00204,-6.38706 5,-2.21204 5,-2.21204 5.80404,4.0319 5.80404,4.03191 4.59957,-4.59956 4.59956,-4.59957 -3.6536,-5.08555 c -2.00949,-2.79705 -3.65361,-5.4773 -3.65361,-5.95612 0,-0.47881 0.90332,-2.91267 2.00738,-5.40857 2.00578,-4.53441 2.01293,-4.53895 9,-5.71747 l 6.99262,-1.17946 0,-6.30124 c 0,-7.01083 0.3838,-6.671 -9.07246,-8.03322 -4.4717,-0.64417 -4.61252,-0.77653 -6.39038,-6.00693 l -1.81793,-5.34824 3.64039,-5.06715 c 2.00221,-2.78693 3.64038,-5.42241 3.64038,-5.85663 0,-0.43421 -1.9389,-2.69236 -4.30867,-5.01812 l -4.30867,-4.22864 -5.44133,3.86313 -5.44133,3.86314 -5.13881,-2.35839 c -4.90947,-2.25313 -5.16863,-2.56967 -5.80696,-7.0927 -1.14825,-8.13615 -1.22196,-8.23431 -6.18289,-8.23431 l -4.49389,0 0.63754,-4.25 c 0.35065,-2.3375 1.39072,-8.22275 2.31128,-13.07833 l 1.67373,-8.82832 7.34522,-2.85355 7.34523,-2.85355 11.65477,8.34703 11.65478,8.34703 9.75,-9.64639 c 5.3625,-5.30552 9.75,-9.97696 9.75,-10.38099 0,-0.40402 -3.375,-5.47572 -7.5,-11.27043 -4.125,-5.79472 -7.50129,-10.8726 -7.50287,-11.28418 -0.003,-0.69748 5.04124,-13.27134 5.67364,-14.14368 0.15764,-0.21745 6.2587,-1.45395 13.55792,-2.74779 7.29922,-1.29383 13.84657,-2.56919 14.54966,-2.83413 0.9715,-0.36608 1.21154,-3.77925 1,-14.21901 l -0.27835,-13.73729 -13.36012,-2.22666 c -7.34806,-1.22467 -13.61399,-2.48054 -13.92428,-2.79083 -0.31029,-0.31029 -1.78332,-3.69766 -3.2734,-7.52749 l -2.70924,-6.96332 8.31497,-11.77906 8.31497,-11.77906 -9.67585,-9.76321 c -5.32171,-5.36976 -10.16446,-9.5757 -10.76166,-9.34653 -0.5972,0.22916 -5.82333,3.78909 -11.61363,7.91094 l -10.52781,7.49428 -5.89198,-2.87533 c -3.24058,-1.58144 -6.4459,-2.88542 -7.12292,-2.89774 -0.67702,-0.0123 -1.45289,-1.03491 -1.72415,-2.27241 -0.63044,-2.87602 -4.5449,-25.46805 -4.5449,-26.23052 0,-0.31591 -6.39753,-0.44954 -14.21672,-0.29694 l -14.21673,0.27746 -2.22673,13.36012 c -1.2247,7.34806 -2.36467,13.45499 -2.53327,13.57095 -0.1686,0.11595 -2.78155,1.13006 -5.80655,2.25357 -3.025,1.1235 -6.20388,2.34513 -7.06419,2.71473 -1.04132,0.44737 -5.55401,-2.15842 -13.5,-7.79539 l -11.93581,-8.4674 -9.76321,9.67611 c -5.36976,5.32185 -9.5757,10.16472 -9.34653,10.76192 0.22916,0.5972 3.81929,5.86575 7.97805,11.7079 l 7.56138,10.62208 -3.33739,7.32344 -3.3374,7.32343 -10.37745,1.74545 c -5.7076,0.95999 -10.93995,1.73591 -11.62745,1.72426 -0.86753,-0.0147 -1.25,-1.9786 -1.25,-6.41852 l 0,-6.39734 -6.75,-1.1272 c -12.2533,-2.04622 -11.64365,-1.73852 -13.46176,-6.79447 l -1.67547,-4.6593 4.99761,-6.87109 c 2.74869,-3.77911 5.20553,-7.41293 5.45966,-8.07516 0.25412,-0.66224 -2.36972,-4.01066 -5.83077,-7.44094 l -6.2928,-6.23688 -7.81725,5.4412 -7.81725,5.44119 -4.36119,-2.11883 c -4.66429,-2.26609 -5.12528,-3.32332 -6.98266,-16.01383 l -0.69521,-4.75 -9.2961,0 -9.29611,0 -1.14263,7.25 c -1.54944,9.8311 -1.94625,10.58168 -6.72534,12.72135 l -4.15935,1.86219 -8.12102,-5.61317 -8.12103,-5.61318 -6.46521,6.4652 -6.4652,6.46521 5.52831,7.66582 5.52831,7.66581 -2.18197,4.49115 c -2.14096,4.40675 -2.30575,4.5118 -8.76877,5.58993 -3.62274,0.60434 -7.8243,1.3485 -9.3368,1.6537 l -2.75,0.5549 0,9.25941 0,9.2594 8.43547,1.31224 c 4.63951,0.72173 8.81886,1.58175 9.28745,1.91114 0.46859,0.3294 1.5717,2.4739 2.45135,4.76556 l 1.59936,4.16665 -5.38681,7.60316 c -2.96275,4.18174 -5.38682,7.91869 -5.38682,8.30435 0,1.07826 11.30878,12.25918 12.39937,12.25918 0.52908,0 4.20959,-2.24508 8.17891,-4.98906 l 7.21693,-4.98907 4.52577,2.00197 c 4.88525,2.16097 4.66429,1.69503 6.76341,14.26224 l 1.13349,6.78609 9.14106,-0.28609 9.14106,-0.28608 1.51264,-8.87244 1.51264,-8.87244 4.74193,-1.86265 4.74194,-1.86265 7.69792,5.52334 7.69792,5.52333 6.51705,-6.51705 6.51706,-6.51706 -5.18877,-7.46366 -5.18877,-7.46366 1.96858,-4.45029 c 2.22711,-5.03476 2.52897,-5.21589 10.31309,-6.18845 l 5.65677,-0.70677 0,11.61523 c 0,10.24161 0.2,11.61522 1.6912,11.61522 4.18365,0 26.3088,4.3986 26.3088,5.23033 0,0.51071 1.15669,3.81983 2.57042,7.3536 l 2.57042,6.42503 -8.07042,11.45159 c -4.43873,6.29838 -8.07042,11.81775 -8.07042,12.26527 0,1.77481 18.86806,19.53655 20.16065,18.97854 0.73664,-0.318 6.02992,-3.92659 11.76283,-8.01909 l 10.42348,-7.44089 7.07652,3.38211 7.07652,3.38211 2.53137,14.2457 2.53138,14.2457 11.98055,0.5 11.98055,0.5 -0.80983,5.07177 c -0.78513,4.91708 -0.96465,5.13718 -5.88582,7.21632 l -5.07599,2.14454 -5.56743,-3.98675 -5.56744,-3.98675 -4.30867,4.22864 c -2.36977,2.32576 -4.30867,4.63716 -4.30867,5.13646 0,0.4993 1.57185,3.04911 3.49301,5.66624 l 3.493,4.75843 -2.243,5.06039 -2.24301,5.06038 -6.75,1.15552 -6.75,1.15551 0,6.30266 c 0,7.05996 -0.0116,7.04825 8.07298,8.12071 3.40036,0.45107 5.25974,1.21213 5.58518,2.28606 0.26831,0.88543 1.16139,3.15347 1.9846,5.04009 1.47819,3.38765 1.44479,3.50392 -2.69115,9.36869 l -4.18792,5.93846 4.49929,4.4993 4.49929,4.49929 6.06108,-4.116 c 3.33631,-2.26564 6.3307,-3.67972 6.66084,-3.14554 0.32988,0.53375 2.35936,1.49764 4.50995,2.14197 4.09845,1.22793 4.07125,1.17751 5.603,10.38361 0.36605,2.2 0.87881,4.37119 1.13949,4.82487 0.26067,0.45367 3.23815,0.67867 6.61662,0.5 l 6.14267,-0.32487 1.00204,-6.38707 z m -14.99796,-23.53421 c -3.76489,-1.6854 -9.04407,-7.19477 -10.43867,-10.89382 -1.47826,-3.92098 -1.32428,-11.13634 0.31943,-14.96702 1.68271,-3.92159 7.11623,-9.21706 10.93434,-10.65655 7.79255,-2.9379 18.26192,-0.12933 23.03479,6.17944 10.09037,13.33744 1.01274,31.84272 -15.56005,31.72009 -2.90941,-0.0215 -6.63984,-0.64349 -8.28984,-1.38214 z M 429.0499,690.76467 c -6.39049,-3.1632 -10.12133,-9.45779 -10.12133,-17.07649 0,-8.71647 3.26194,-14.31479 10.49019,-18.00383 9.36391,-4.77901 21.29999,-1.02944 26.26008,8.24927 3.28191,6.13936 2.86819,14.95595 -0.97426,20.76228 -5.16282,7.80155 -16.65962,10.52119 -25.65468,6.06877 z M 281.48639,670.4415 c -5.78734,-2.06165 -8.78188,-4.58494 -11.30782,-9.52831 -4.16881,-8.15854 -2.6372,-17.49961 3.88076,-23.66824 4.17406,-3.95035 7.66371,-5.31133 13.61862,-5.31133 9.14618,0 16.83218,6.10731 19.34326,15.37019 2.40544,8.87318 -3.73858,19.95823 -12.76719,23.03459 -5.63812,1.9211 -7.61933,1.93709 -12.76763,0.1031 z m -40.4801,90.35069 c 11.10998,-3.32863 17.52456,-15.88789 13.76933,-26.95935 -1.79075,-5.27963 -4.57433,-8.65509 -9.53465,-11.56203 -13.01436,-7.62692 -29.8565,1.12014 -31.1032,16.15363 -1.28571,15.50399 12.22813,26.75412 26.86852,22.36775 z"
         style="fill:#2d2c2e;fill-opacity:1" />
      <g
         transform="matrix(1.4323699,0,0,1.4323699,-79.233238,304.20317)"
         id="g4414">
        <g
           id="g4275"
           style="fill:#ec6e31;fill-opacity:1"
           transform="translate(210,-101)">
          <path
             id="path13"
             d="m 89.70993,232.63153 c -1.8703,0 -3.38619,-1.51675 -3.38619,-3.38661 0,-1.87074 1.5161,-3.38662 3.38619,-3.38662 l 32.22718,0 c 1.8703,0 3.38683,1.51632 3.38683,3.38683 0,1.87009 -1.51675,3.38684 -3.38683,3.38684 l -32.22718,0 z m 0,9.65074 c -1.8703,0 -3.38619,-1.51675 -3.38619,-3.38683 0,-1.8703 1.5161,-3.38619 3.38619,-3.38619 l 32.22718,0 c 1.8703,0 3.38683,1.5161 3.38683,3.38619 0,1.8703 -1.51675,3.38683 -3.38683,3.38683 l -32.22718,0 z m 27.89221,3.69062 -23.55335,0 c 0,0 11.85879,11.777 23.554,0 z"
             inkscape:connector-curvature="0"
             style="fill:#ec6e31;fill-opacity:1" />
          <g
             id="g15"
             style="fill:#ec6e31;fill-opacity:1"
             transform="matrix(0.21636968,0,0,0.21636968,-75.75013,143.05557)">
            <path
               style="fill:#ec6e31;fill-opacity:1"
               id="path17"
               d="m 851.033,160.93 c 1.02,-6.3 -1.675,-9.747 -4.116,-11.53 -2.15,-1.57 -4.806,-2.377 -7.443,-2.377 -1.907,0 -3.806,0.42 -5.5,1.28 -4.357,2.215 -6.66,6.872 -6.66,13.468 0,9.71 5.608,18.002 12.142,24.367 7.688,-6.996 9.833,-14.452 11.577,-25.207 z"
               inkscape:connector-curvature="0" />
            <path
               style="fill:#ec6e31;fill-opacity:1"
               id="path19"
               d="M 1001.726,128.664 C 995.3,100.314 978.669,69.698 959.392,50.421 940.114,31.145 910.252,9.601 875.479,3.551 c -34.775,-6.046 -65.77,-5.29 -108.105,12.853 -42.335,18.143 -67.66,57.454 -81.268,84.29 -13.608,26.836 -15.12,69.55 -7.182,103.947 7.938,34.397 44.225,83.157 51.028,93.74 6.804,10.584 18.144,27.215 21.167,38.933 3.023,11.718 6.805,30.37 6.805,30.37 l 48.894,0 c -1.26,-13.172 -10.403,-106.972 -18.97,-146.064 -14.01,3.405 -24.544,2 -31.403,-4.22 -11.488,-10.41 -7.034,-28.654 -6.488,-30.7 1.568,-5.887 7.344,-9.856 14.37,-9.876 l 0.053,0 c 10.346,0 23.627,8.353 30.895,31.51 l 0.622,-0.232 c 15.973,-5.99 27.065,-10.908 34.888,-15.644 -8.125,-8.3 -13.987,-18.566 -13.987,-30.685 0,-10.507 4.525,-18.832 12.414,-22.84 7.592,-3.856 16.975,-3.08 23.904,1.98 6.712,4.902 9.735,12.812 8.294,21.702 -2.116,13.05 -5.28,22.216 -13.777,30.345 11.685,8.442 24.53,13.212 29.94,14.243 0.97,0.185 1.972,0.382 3,0.586 3.35,-8.34 7.138,-14.635 11.354,-18.852 10.325,-10.325 19.48,-14.42 27.202,-12.163 5.712,1.667 9.907,6.786 11.51,14.045 1.75,7.92 0.28,18.77 -5.908,24.187 -9.486,8.3 -24.424,7.075 -37.33,4.802 -12.758,40.832 -15.138,115.445 -14.766,147.874 l 48.2,0 c 0,0 4.914,-23.564 6.803,-31.503 1.892,-7.937 20.035,-37.042 28.35,-48.76 8.316,-11.716 24.948,-38.176 38.556,-67.66 13.606,-29.485 13.606,-62.747 7.18,-91.096 z"
               inkscape:connector-curvature="0" />
            <path
               style="fill:#ec6e31;fill-opacity:1"
               id="path21"
               d="m 797.938,218.55 c 9.13,40.957 18.562,139.764 19.443,149.13 l 44.746,0 c -0.048,-6.47 -0.13,-39.96 2.82,-76.078 2.548,-31.225 6.602,-55.883 12.113,-73.795 -0.493,-0.097 -0.978,-0.19 -1.453,-0.28 -6.873,-1.31 -22.98,-7.375 -36.6,-17.83 -8.88,5.81 -21.422,11.497 -39.417,18.245 -0.555,0.208 -1.105,0.41 -1.652,0.607 z m -33.553,-31.215 -0.026,0 c -2.176,0.006 -3.92,0.858 -4.243,2.072 -1.48,5.545 -1.796,15.5 3.392,20.203 4.11,3.727 11.53,4.333 21.73,1.84 -5.56,-17.732 -14.572,-24.115 -20.855,-24.115 z m 155.99,5.749 c -0.354,-1.606 -1.473,-5.428 -4.19,-6.22 -1.33,-0.39 -6.47,-0.848 -16.823,9.505 -3.1,3.097 -5.854,7.682 -8.302,13.393 10.16,1.667 21.02,2.345 26.75,-2.67 2.244,-1.964 3.85,-8.2 2.565,-14.01 z"
               inkscape:connector-curvature="0" />
          </g>
        </g>
        <path
           style="fill:none;stroke:#ff6500;stroke-width:4.53200006;stroke-linecap:butt;stroke-linejoin:round;stroke-miterlimit:4;stroke-dasharray:none;stroke-opacity:1"
           d="M 277.13428,49.496458 249.86572,33.227908"
           id="path4302"
           inkscape:connector-curvature="0" />
        <path
           style="fill:none;stroke:#ff6500;stroke-width:4.53200006;stroke-linecap:butt;stroke-linejoin:round;stroke-miterlimit:4;stroke-dasharray:none;stroke-opacity:1"
           d="m 356.36572,49.496458 27.26856,-16.26855"
           id="path4302-7"
           inkscape:connector-curvature="0" />
        <path
           style="fill:none;stroke:#ff6500;stroke-width:4.53200006;stroke-linecap:butt;stroke-linejoin:round;stroke-miterlimit:4;stroke-dasharray:none;stroke-opacity:1"
           d="M 293.37355,37.301559 282.62645,7.4228066"
           id="path4302-71"
           inkscape:connector-curvature="0" />
        <path
           style="fill:none;stroke:#ff6500;stroke-width:4.53200006;stroke-linecap:butt;stroke-linejoin:round;stroke-miterlimit:4;stroke-dasharray:none;stroke-opacity:1"
           d="M 340.31095,36.101186 361.68905,12.62318"
           id="path4302-7-1"
           inkscape:connector-curvature="0" />
        <path
           style="fill:none;stroke:#ff6500;stroke-width:4.53200006;stroke-linecap:butt;stroke-linejoin:round;stroke-miterlimit:4;stroke-dasharray:none;stroke-opacity:1"
           d="M 318.18415,32.237512 317.81585,0.48685403"
           id="path4302-7-1-4"
           inkscape:connector-curvature="0" />
      </g>
    </g>
  </g>
</svg>
