<?xml version="1.0" encoding="UTF-8" standalone="no"?>
<!-- Generator: Adobe Illustrator 16.0.0, SVG Export Plug-In . SVG Version: 6.00 Build 0)  -->

<svg
   xmlns:dc="http://purl.org/dc/elements/1.1/"
   xmlns:cc="http://creativecommons.org/ns#"
   xmlns:rdf="http://www.w3.org/1999/02/22-rdf-syntax-ns#"
   xmlns:svg="http://www.w3.org/2000/svg"
   xmlns="http://www.w3.org/2000/svg"
   xmlns:sodipodi="http://sodipodi.sourceforge.net/DTD/sodipodi-0.dtd"
   xmlns:inkscape="http://www.inkscape.org/namespaces/inkscape"
   version="1.1"
   id="Calque_1"
   x="0px"
   y="0px"
   width="200px"
   height="200px"
   viewBox="0 0 200 200"
   enable-background="new 0 0 200 200"
   xml:space="preserve"
   inkscape:version="0.91 r13725"
   sodipodi:docname="retour.svg"><metadata
     id="metadata13"><rdf:RDF><cc:Work
         rdf:about=""><dc:format>image/svg+xml</dc:format><dc:type
           rdf:resource="http://purl.org/dc/dcmitype/StillImage" /><dc:title></dc:title></cc:Work></rdf:RDF></metadata><defs
     id="defs11" /><sodipodi:namedview
     pagecolor="#ffffff"
     bordercolor="#666666"
     borderopacity="1"
     objecttolerance="10"
     gridtolerance="10"
     guidetolerance="10"
     inkscape:pageopacity="0"
     inkscape:pageshadow="2"
     inkscape:window-width="1366"
     inkscape:window-height="720"
     id="namedview9"
     showgrid="false"
     inkscape:zoom="1.18"
     inkscape:cx="100"
     inkscape:cy="100"
     inkscape:window-x="0"
     inkscape:window-y="0"
     inkscape:window-maximized="1"
     inkscape:current-layer="Calque_1" /><path
     fill="#CE1719"
     d="M100.12,2.5c-53.76,0-97.5,43.74-97.5,97.5s43.74,97.5,97.5,97.5c53.76,0,97.5-43.74,97.5-97.5  S153.88,2.5,100.12,2.5z M100.12,182.5c-45.49,0-82.5-37.01-82.5-82.5s37.01-82.5,82.5-82.5c45.489,0,82.5,37.01,82.5,82.5  S145.609,182.5,100.12,182.5z"
     id="path3"
     style="fill:#008080" /><g
     id="g5"
     transform="matrix(0,1,-1,0,200.12717,-0.12317443)"
     style="fill:#008080"><path
       d="m 148.32,120.09 -43.17,39.01 c -1.434,1.291 -3.23,1.934 -5.03,1.934 -1.8,0 -3.6,-0.643 -5.03,-1.934 L 51.93,120.09 c -3.07,-2.779 -3.31,-7.52 -0.53,-10.6 2.77,-3.07 7.51,-3.311 10.59,-0.53 l 30.63,27.681 0,-90.171 c 0,-4.15 3.36,-7.5 7.5,-7.5 4.149,0 7.5,3.35 7.5,7.5 l 0,90.168 30.64,-27.682 c 3.07,-2.777 7.811,-2.54 10.59,0.527 2.78,3.087 2.541,7.828 -0.53,10.607 z"
       id="path7"
       inkscape:connector-curvature="0"
       style="fill:#008080" /></g></svg>